{
    "defs": [
        {
            "type": "engine",
            "id": "engine1",
            "name": "Engine",
            "energyNeeded": 3,
            "size": 1,
            "force": 10000
        },
        {
            "type": "thruster",
            "id": "thrusters1",
            "name": "Thrusters",
            "energyNeeded": 2,
            "size": 1,
            "torque": 7500
        },
        {
            "type": "powerSource",
            "id": "powerSource1",
            "name": "Power Source",
            "size": 1,
            "energyOutput": 5
        }
    ]
}